../Core/Src/main.c:78:5:main	24	static,ignoring_inline_asm
../Core/Src/main.c:157:6:SystemClock_Config	120	static
../Core/Src/main.c:217:6:PeriphCommonClock_Config	192	static
../Core/Src/main.c:237:6:MPU_Config	8	static
../Core/Src/main.c:255:6:HAL_TIM_PeriodElapsedCallback	16	static
../Core/Src/main.c:281:6:Error_Handler	4	static,ignoring_inline_asm
