../Core/APP/inc/system_state.h:95:20:ADD_WARNING	16	static
../Core/APP/inc/system_state.h:101:20:ADD_FAULT	16	static
../Core/APP/src/motor_controller.c:62:12:MTR_Init	16	static
../Core/APP/src/motor_controller.c:148:6:MTR_CheckPositionISR	48	static
../Core/APP/src/motor_controller.c:173:6:MTR_PulseISR	24	static
../Core/APP/src/motor_controller.c:183:6:MTR_StartPulse	8	static
../Core/APP/src/motor_controller.c:193:6:MTR_EndPulse	8	static
../Core/APP/src/motor_controller.c:206:6:MTR_MoveMotor	48	static
../Core/APP/src/motor_controller.c:257:6:MTR_MoveMotorNonLinear	88	static
../Core/APP/src/motor_controller.c:317:6:MTR_Cylcic	4	static
../Core/APP/src/motor_controller.c:371:13:GetInitalCondition	40	static
../Core/APP/src/motor_controller.c:401:9:MTR_GetMotorStates	16	static
../Core/APP/src/motor_controller.c:413:13:MotorOverrunProtection	16	static
../Core/APP/src/motor_controller.c:424:13:MotorOverspinProtection	16	static
../Core/APP/src/motor_controller.c:449:13:UpdateMotorPID	24	static
../Core/APP/src/motor_controller.c:455:24:clamp_s	24	static
../Core/APP/src/motor_controller.c:473:20:ResetPin	16	static
